FormatVersion=5.0 // Do not edit!
Title="Debug8"

{SENDRECEIVE}

[Set2]
ID=0C2h
DLC=8
Var=BB_State unsigned 0,8
Var=VBat_Low_Fault unsigned 8,8
Var=RevFET_State unsigned 16,8
// Var=IBus signed 24,8
Var=Bemf_Phase_Error signed 24,8 /f:2
Var=Bemf_RPM signed 32,16
// Var=U_Theta signed 48,16
Var=I_abc signed 48,16

[Set1]
ID=0C1h
DLC=8
Var=Grand_State unsigned 0,8 -m
Var=Operating_Mode unsigned 8,8 -m
Var=Bemf_Obsrvr_Fault unsigned 16,8 -m
Var=Observer_State unsigned 24,8 -m
Var=Error_Code unsigned 32,8 -m
Var=VBat unsigned 40,16
// Var=BB_State unsigned 56,8 -m
Var=OV_UV_State unsigned 56,8 -m

